jbiadmin01504 : Test Component Upgrade.
install the component in server and instance1
Installed component Upgrade-Component.
Installed component Upgrade-Component.
deploy the SAs in server and instance1
Deployed service assembly Upgrade-SA1.
Deployed service assembly Upgrade-SA2.
Deployed service assembly Upgrade-SA1.
Deployed service assembly Upgrade-SA2.
shut-down the component in server and instance1
Shut Down component Upgrade-Component.
Shut Down component Upgrade-Component.
upgrade the component
Upgrading a component
IGNORE  jmx connection info: (host=localhost, port=4951, secure=false, username=admin)
  name=Upgrade-Component
IGNORE  file=C:/work/cygwin/home/annies/external/open-esb/runtime/esb-manage/bld/test-classes/dist/upgrade-modified.jar
Upgrade component succeeded. [
Upgrade-Component
]

BUILD SUCCESSFUL
IGNORE Total time: 2 seconds
verify if the component upgrades to workspace has been retained
verify the workspace dir has been preserved in server and instance1
verify that install root has been replaced in server and instance1
Started component Upgrade-Component.
Started component Upgrade-Component.
undeploy the SAs from server and instance1
Undeployed service assembly Upgrade-SA1.
Undeployed service assembly Upgrade-SA2.
Undeployed service assembly Upgrade-SA1.
Undeployed service assembly Upgrade-SA2.
shutdown the component in server and instance1
Shut Down component Upgrade-Component.
Shut Down component Upgrade-Component.
uninstall the component from server and instance1
Uninstalled component Upgrade-Component.
Uninstalled component Upgrade-Component.