jbiadmin00129 : Test fix for CR 6503120 & 6503180
IGNORE JBI_HOME is D:/nikita/dev/jsr208/main/open-esb/install/as8/jbi
IGNORE JBI_DOMAIN_ROOT is D:/nikita/dev/jsr208/main/open-esb/install/as8/domains/CAS
IGNORE jbi_instance_name is server
IGNORE jmx.provider is service:jmx:rmi:///jndi/rmi://Mystique01:10789/management/rmi-jmx-connector

BUILD SUCCESSFUL
IGNORE Total time: 2 seconds
Installing a component
IGNORE jmx connection info: (host=localhost, port=6951, secure=true, username=admin, target=domain )
IGNORE   file=D:/nikita/dev/jsr208/main/open-esb/runtime/esb-manage/bld/test-classes/dist/component-binding1.jar
Install component succeeded. [
manage-binding-1
]

BUILD SUCCESSFUL
IGNORE Total time: 2 seconds
IGNORE IGNORE JBI_HOME is D:/nikita/dev/jsr208/main/open-esb/install/as8/jbi
IGNORE JBI_DOMAIN_ROOT is D:/nikita/dev/jsr208/main/open-esb/install/as8/domains/CAS
IGNORE jbi_instance_name is server
IGNORE jmx.provider is service:jmx:rmi:///jndi/rmi://Mystique01:10789/management/rmi-jmx-connector

BUILD SUCCESSFUL
IGNORE Total time: 1 second
Installing a component
IGNORE   jmx connection info: (host=localhost, port=6951, secure=true, username=admin, target=server )
IGNORE   file=D:/nikita/dev/jsr208/main/open-esb/runtime/esb-manage/bld/test-classes/dist/modified-component.jar
Install component failed. [
  ERROR:(JBIMA1327)Installation archive for component manage-binding-1 is not identical to the archive which already exists in the domain. 
]

BUILD SUCCESSFUL
IGNORE Total time: 2 seconds
Uninstalling a component
IGNORE   jmx connection info: (host=localhost, port=6951, secure=true, username=admin, target=domain )
IGNORE   name=manage-binding-1
Uninstall component succeeded. [
manage-binding-1
]

BUILD SUCCESSFUL
IGNORE Total time: 2 seconds
Deploying a service assembly
IGNORE   jmx connection info: (host=localhost, port=6951, secure=true, username=admin, target=domain )
IGNORE   file=D:/nikita/dev/jsr208/main/open-esb/runtime/esb-manage/bld/test-classes/dist/deploy-sa.jar
Service assembly deployment succeeded. [
esbadmin00089-sa
]

BUILD SUCCESSFUL
IGNORE Total time: 3 seconds
IGNORE JBI_HOME is D:/nikita/dev/jsr208/main/open-esb/install/as8/jbi
IGNORE JBI_DOMAIN_ROOT is D:/nikita/dev/jsr208/main/open-esb/install/as8/domains/CAS
IGNORE jbi_instance_name is server
IGNORE jmx.provider is service:jmx:rmi:///jndi/rmi://Mystique01:10789/management/rmi-jmx-connector

BUILD SUCCESSFUL
Total time: 1 second
Deploying a service assembly
IGNORE   jmx connection info: (host=localhost, port=6951, secure=true, username=admin, target=server )
IGNORE   file=D:/nikita/dev/jsr208/main/open-esb/runtime/esb-manage/bld/test-classes/dist/modified-sa.jar
Service assembly deployment failed. [
  ERROR:(JBIMA1411)Deployment archive for service assembly esbadmin00089-sa is not identical to the archive which already exists in the domain.
]

BUILD SUCCESSFUL
IGNORE Total time: 3 seconds
Undeploying a service assembly
IGNORE   jmx connection info: (host=localhost, port=6951, secure=true, username=admin, target=domain )
IGNORE   name=esbadmin00089-sa
Service assembly undeployment succeeded. [
esbadmin00089-sa
]

BUILD SUCCESSFUL
IGNORE Total time: 2 seconds
Installing a shared library
IGNORE   jmx connection info: (host=localhost, port=6951, secure=true, username=admin, target=domain )
IGNORE   file=D:/nikita/dev/jsr208/main/open-esb/runtime/esb-manage/bld/test-classes/dist/shared-library.jar
Install shared library succeeded. [
TestSharedLibrary
]

BUILD SUCCESSFUL
IGNORE Total time: 2 seconds
IGNORE JBI_HOME is D:/nikita/dev/jsr208/main/open-esb/install/as8/jbi
IGNORE JBI_DOMAIN_ROOT is D:/nikita/dev/jsr208/main/open-esb/install/as8/domains/CAS
IGNORE jbi_instance_name is server
IGNORE jmx.provider is service:jmx:rmi:///jndi/rmi://Mystique01:10789/management/rmi-jmx-connector

BUILD SUCCESSFUL
IGNORE Total time: 1 second
Installing a shared library
IGNORE   jmx connection info: (host=localhost, port=6951, secure=true, username=admin, target=server )
IGNORE   file=D:/nikita/dev/jsr208/main/open-esb/runtime/esb-manage/bld/test-classes/dist/modified-sl.jar
Install shared library failed. [
  ERROR:(JBIMA1328)Installation archive for shared library TestSharedLibrary is not identical to the archive which already exists in the domain.
]

BUILD SUCCESSFUL
IGNORE Total time: 2 seconds
Uninstalling a shared library
IGNORE   jmx connection info: (host=localhost, port=6951, secure=true, username=admin, target=domain )
IGNORE   name=TestSharedLibrary
Uninstall shared library succeeded. [
TestSharedLibrary
]

BUILD SUCCESSFUL
IGNORE Total time: 2 seconds
