jbiadmin00116 - Shared library upgrade test cases for the cluster target
Creating cluster : cluster1
Command create-cluster executed successfully.
Creating instance : instance2
Command create-instance executed successfully.
Starting instance : instance2
Command start-instance executed successfully.
Creating instance : instance3
IGNORE Using 38,081 for HTTP_LISTENER_PORT. 
IGNORE Using 38,182 for HTTP_SSL_LISTENER_PORT. 
IGNORE Using 33,821 for IIOP_SSL_LISTENER_PORT. 
IGNORE Using 37,677 for JMS_PROVIDER_PORT. 
IGNORE Using 33,701 for IIOP_LISTENER_PORT. 
IGNORE Using 38,687 for JMX_SYSTEM_CONNECTOR_PORT. 
IGNORE Using 33,921 for IIOP_SSL_MUTUALAUTH_PORT. 
Command create-instance executed successfully.
Starting instance : instance3
Command start-instance executed successfully.
testname is jbiadmin01001
Installing a shared library
IGNORE jmx connection info: (host=localhost, port=6951, secure=true, username=admin, target=cluster1 )
IGNORE file=D:/nikita/dev/jsr208/main/open-esb/install/as8/jbi/sharedlibraries/wsdl/installer/wsdlsl.jar
Install shared library succeeded. [
sun-wsdl-library
]

BUILD SUCCESSFUL
IGNORE Total time: 34 seconds
Installing a component
IGNORE jmx connection info: (host=localhost, port=6951, secure=true, username=admin, target=cluster1 )
IGNORE   file=D:/nikita/dev/jsr208/main/open-esb/install/as8/jbi/components/bindings/filebinding/installer/filebinding.jar
Install component succeeded. [
SunFileBinding
]

BUILD SUCCESSFUL
IGNORE Total time: 7 seconds
Starting a component
IGNORE   jmx connection info: (host=localhost, port=6951, secure=true, username=admin, target=cluster1 )
IGNORE   name=SunFileBinding
Start component succeeded. [
SunFileBinding
]

BUILD SUCCESSFUL
IGNORE Total time: 2 seconds
Uninstalling a shared library
IGNORE   jmx connection info: (host=localhost, port=6951, secure=true, username=admin, target=cluster1 )
IGNORE   name=sun-wsdl-library
Uninstall shared library failed. [
  ERROR:(JBIMA1313)Component SunFileBinding is active on instance instance3 and requires shared library sun-wsdl-library.
]

BUILD SUCCESSFUL
IGNORE Total time: 3 seconds
Shutting down a component
IGNORE   jmx connection info: (host=localhost, port=6951, secure=true, username=admin, target=cluster1 )
IGNORE   name=SunFileBinding
Shutdown component succeeded. [
SunFileBinding
]

BUILD SUCCESSFUL
IGNORE Total time: 2 seconds
Uninstalling a shared library
IGNORE   jmx connection info: (host=localhost, port=6951, secure=true, username=admin, target=cluster1 )
IGNORE   name=sun-wsdl-library
Uninstall shared library succeeded. [
  WARNING:(JBIFW1322)Shared Library sun-wsdl-library has been uninstalled, but the following components cannot be started until this Shared Library is reinstalled: Binding SunFileBinding.
    Caused by:(JBIFW1322)Shared Library sun-wsdl-library has been uninstalled, but the following components cannot be started until this Shared Library is reinstalled: Binding SunFileBinding.
]

BUILD SUCCESSFUL
IGNORE Total time: 6 seconds
============================================================
  List of Shared Libraries for Target "domain"
============================================================
Shared libraries were not found for the specified query.
------------------------------------------------------------

BUILD SUCCESSFUL
IGNORE Total time: 2 seconds
Installing a shared library
IGNORE   jmx connection info: (host=localhost, port=6951, secure=true, username=admin, target=cluster1 )
IGNORE file=D:/nikita/dev/jsr208/main/open-esb/install/as8/jbi/sharedlibraries/wsdl/installer/wsdlsl.jar
Install shared library succeeded. [
sun-wsdl-library
]

BUILD SUCCESSFUL
IGNORE Total time: 13 seconds
Starting a component
IGNORE   jmx connection info: (host=localhost, port=6951, secure=true, username=admin, target=cluster1 )
IGNORE   name=SunFileBinding
Start component succeeded. [
SunFileBinding
]

BUILD SUCCESSFUL
IGNORE Total time: 2 seconds
Shutting down a component
IGNORE   jmx connection info: (host=localhost, port=6951, secure=true, username=admin, target=cluster1 )
IGNORE   name=SunFileBinding
Shutdown component succeeded. [
SunFileBinding
]

BUILD SUCCESSFUL
IGNORE Total time: 2 seconds
Uninstalling a component
IGNORE   jmx connection info: (host=localhost, port=6951, secure=true, username=admin, target=cluster1 )
IGNORE   name=SunFileBinding
Uninstall component succeeded. [
SunFileBinding
]

BUILD SUCCESSFUL
IGNORE Total time: 3 seconds
Uninstalling a shared library
IGNORE   jmx connection info: (host=localhost, port=6951, secure=true, username=admin, target=cluster1 )
IGNORE   name=sun-wsdl-library
Uninstall shared library succeeded. [
sun-wsdl-library
]

BUILD SUCCESSFUL
IGNORE Total time: 16 seconds
Stopping instance : instance3
Command stop-instance executed successfully.
Deleting instance : instance3
Command delete-instance executed successfully.
Stopping instance : instance2
Command stop-instance executed successfully.
Deleting instance : instance2
Command delete-instance executed successfully.
Deleting cluster : cluster1
Command delete-cluster executed successfully.
