testname is jbiadmin01001
Installing a shared library
IGNORE   jmx connection info: (host=localhost, port=14851, username=admin, target=server )
IGNORE   file=C:/cygwin/home/kcbabo/build/open-esb/install/as8/jbi/sharedlibraries/wsdl/installer/wsdlsl.jar
Install shared library succeeded. [
TestSharedLibrary
]

BUILD SUCCESSFUL
IGNORE Total time: 3 seconds
Installing a component
IGNORE   jmx connection info: (host=localhost, port=14851, username=admin, target=server )
IGNORE   file=C:/cygwin/home/kcbabo/build/open-esb/install/as8/jbi/components/bindings/filebinding/installer/filebinding.jar
Install component succeeded. [
manage-binding-3
]

BUILD SUCCESSFUL
IGNORE Total time: 1 second
Starting a component
IGNORE   jmx connection info: (host=localhost, port=14851, username=admin, target=server )
  name=manage-binding-3
Start component succeeded. [
manage-binding-3
]

BUILD SUCCESSFUL
IGNORE Total time: 1 second
Uninstalling a shared library
IGNORE   jmx connection info: (host=localhost, port=14851, username=admin, target=server )
  name=TestSharedLibrary
Uninstall shared library failed. [
  ERROR:(JBIMA1313)Component manage-binding-3 is in the STARTED state on target server and references Shared Library TestSharedLibrary. This component must be shut down before the Shared Library can be uninstalled.
]

BUILD SUCCESSFUL
IGNORE Total time: 0 seconds
Shutting down a component
IGNORE   jmx connection info: (host=localhost, port=14851, username=admin, target=server )
  name=manage-binding-3
Shutdown component succeeded. [
manage-binding-3
]

BUILD SUCCESSFUL
IGNORE Total time: 0 seconds
Uninstalling a shared library
IGNORE   jmx connection info: (host=localhost, port=14851, username=admin, target=server )
  name=TestSharedLibrary
Uninstall shared library succeeded. [
  WARNING:(JBIFW1322)Shared Library TestSharedLibrary has been uninstalled, but the following components cannot be started until this Shared Library is reinstalled: Binding manage-binding-3.
]

BUILD SUCCESSFUL
IGNORE Total time: 3 seconds
============================================================
  List of Shared Libraries for Target "domain"
============================================================
Name       : sun-wsdl-library
State      : Installed
Description: This library provides WSDL 1.1/2.0 parsing support and message-wrapping utilities used to send WSDL 1.1-defined messages over the Normalized Message Router (NMR).
------------------------------------------------------------

BUILD SUCCESSFUL
IGNORE Total time: 0 seconds
Installing a shared library
IGNORE   jmx connection info: (host=localhost, port=14851, username=admin, target=server )
IGNORE   file=C:/cygwin/home/kcbabo/build/open-esb/install/as8/jbi/sharedlibraries/wsdl/installer/wsdlsl.jar
Install shared library succeeded. [
TestSharedLibrary
]

BUILD SUCCESSFUL
IGNORE Total time: 0 seconds
Starting a component
IGNORE   jmx connection info: (host=localhost, port=14851, username=admin, target=server )
  name=manage-binding-3
Start component succeeded. [
manage-binding-3
]

BUILD SUCCESSFUL
IGNORE Total time: 0 seconds
Shutting down a component
IGNORE   jmx connection info: (host=localhost, port=14851, username=admin, target=server )
  name=manage-binding-3
Shutdown component succeeded. [
manage-binding-3
]

BUILD SUCCESSFUL
IGNORE Total time: 0 seconds
Uninstalling a component
IGNORE   jmx connection info: (host=localhost, port=14851, username=admin, target=server )
  name=manage-binding-3
Uninstall component succeeded. [
manage-binding-3
]

BUILD SUCCESSFUL
IGNORE Total time: 1 second
Uninstalling a shared library
IGNORE   jmx connection info: (host=localhost, port=14851, username=admin, target=server )
  name=TestSharedLibrary
Uninstall shared library succeeded. [
TestSharedLibrary
]

BUILD SUCCESSFUL
IGNORE Total time: 2 seconds
