admincommon00007: Test the application variable management operations for component configuration.
IGNORE jbi_instance_name is server
IGNORE jmx.provider is service:jmx:rmi:///jndi/rmi://Mystique01:10787/management/rmi-jmx-connector

BUILD SUCCESSFUL
IGNORE Total time: 1 second
Installing a component
IGNORE jmx connection info: (host=localhost, port=6949, secure=false, username=admin, target=server )
IGNORE file=D:/nikita/dev/jsr208/jnet/open-esb/ri-clients/jbi-admin-common/bld/regress/testdata/component-with-custom-mbean.jar
Install component succeeded. [
admin-common-binding-1
]

BUILD SUCCESSFUL
IGNORE Total time: 1 second
Starting a component
IGNORE jmx connection info: (host=localhost, port=6949, secure=false, username=admin, target=server )
  name=admin-common-binding-1
Start component succeeded. [
admin-common-binding-1
]

BUILD SUCCESSFUL
IGNORE Total time: 0 seconds
IGNORE jbi_instance_name is server
IGNORE jmx.provider is service:jmx:rmi:///jndi/rmi://Mystique01:10787/management/rmi-jmx-connector
Result of getApplicationVariables: {default=[STRING]defValue}

BUILD SUCCESSFUL
IGNORE Total time: 2 seconds
IGNORE jbi_instance_name is server
IGNORE jmx.provider is service:jmx:rmi:///jndi/rmi://Mystique01:10787/management/rmi-jmx-connector
Result of addApplicationVariables: <?xml version="1.0" encoding="UTF-8" standalone="yes"?><jbi-task version="1.0" xmlns="http://java.sun.com/xml/ns/jbi/management-message" xmlns:xsi="http://www.w3.org/2001/XMLSchema-instance" > <jbi-task-result><frmwk-task-result><frmwk-task-result-details><task-result-details><task-id>addApplicationVariables</task-id><task-result>SUCCESS</task-result><message-type>INFO</message-type></task-result-details><locale></locale></frmwk-task-result-details><is-cause-framework>YES</is-cause-framework></frmwk-task-result></jbi-task-result></jbi-task>

BUILD SUCCESSFUL
IGNORE Total time: 3 seconds
IGNORE jbi_instance_name is server
IGNORE jmx.provider is service:jmx:rmi:///jndi/rmi://Mystique01:10787/management/rmi-jmx-connector
Result of getApplicationVariables: {one=[STRING]One, three=[NUMBER]3, two=[NUMBER]2, default=[STRING]defValue}

BUILD SUCCESSFUL
IGNORE Total time: 2 seconds
IGNORE jbi_instance_name is server
IGNORE jmx.provider is service:jmx:rmi:///jndi/rmi://Mystique01:10787/management/rmi-jmx-connector
Result of setApplicationVariables: <?xml version="1.0" encoding="UTF-8" standalone="yes"?><jbi-task version="1.0" xmlns="http://java.sun.com/xml/ns/jbi/management-message" xmlns:xsi="http://www.w3.org/2001/XMLSchema-instance" > <jbi-task-result><frmwk-task-result><frmwk-task-result-details><task-result-details><task-id>setApplicationVariables</task-id><task-result>SUCCESS</task-result><message-type>INFO</message-type></task-result-details><locale></locale></frmwk-task-result-details><is-cause-framework>YES</is-cause-framework></frmwk-task-result></jbi-task-result></jbi-task>

BUILD SUCCESSFUL
IGNORE Total time: 3 seconds
IGNORE jbi_instance_name is server
IGNORE jmx.provider is service:jmx:rmi:///jndi/rmi://Mystique01:10787/management/rmi-jmx-connector
Result of getApplicationVariables: {one=[STRING]OneOne, three=[NUMBER]33, two=[NUMBER]22, default=[STRING]defValue}

BUILD SUCCESSFUL
IGNORE Total time: 2 seconds
IGNORE jbi_instance_name is server
IGNORE jmx.provider is service:jmx:rmi:///jndi/rmi://nikita-sawants-computer.local:8687/management/rmi-jmx-connector
Result of setApplicationVariables: <?xml version="1.0" encoding="UTF-8" standalone="yes"?><jbi-task version="1.0" xmlns="http://java.sun.com/xml/ns/jbi/management-message" xmlns:xsi="http://www.w3.org/2001/XMLSchema-instance" > <jbi-task-result><frmwk-task-result><frmwk-task-result-details><task-result-details><task-id>setApplicationVariables</task-id><task-result>SUCCESS</task-result><message-type>INFO</message-type></task-result-details><locale></locale></frmwk-task-result-details><is-cause-framework>YES</is-cause-framework></frmwk-task-result></jbi-task-result></jbi-task>

BUILD SUCCESSFUL
IGNORE Total time: 1 second
IGNORE jbi_instance_name is server
IGNORE jmx.provider is service:jmx:rmi:///jndi/rmi://nikita-sawants-computer.local:8687/management/rmi-jmx-connector
Result of getApplicationVariables: {one=[STRING]OneOneOne, three=[NUMBER]333, two=[NUMBER]222, default=[STRING]defValue}

BUILD SUCCESSFUL
Total time: 1 second
IGNORE jbi_instance_name is server
IGNORE jmx.provider is service:jmx:rmi:///jndi/rmi://Mystique01:10787/management/rmi-jmx-connector
Result of deleteApplicationVariables: <?xml version="1.0" encoding="UTF-8" standalone="yes"?><jbi-task version="1.0" xmlns="http://java.sun.com/xml/ns/jbi/management-message" xmlns:xsi="http://www.w3.org/2001/XMLSchema-instance" > <jbi-task-result><frmwk-task-result><frmwk-task-result-details><task-result-details><task-id>deleteApplicationVariables</task-id><task-result>SUCCESS</task-result><message-type>INFO</message-type></task-result-details><locale></locale></frmwk-task-result-details><is-cause-framework>YES</is-cause-framework></frmwk-task-result></jbi-task-result></jbi-task>

BUILD SUCCESSFUL
IGNORE Total time: 2 seconds
IGNORE jbi_instance_name is server
IGNORE jmx.provider is service:jmx:rmi:///jndi/rmi://Mystique01:10787/management/rmi-jmx-connector
Result of getApplicationVariables: {one=[STRING]OneOneOne, default=[STRING]defValue}

BUILD SUCCESSFUL
IGNORE Total time: 2 seconds
Shutting down a component
IGNORE jmx connection info: (host=localhost, port=6949, secure=false, username=admin, target=server )
  name=admin-common-binding-1
Shutdown component succeeded. [
admin-common-binding-1
]

BUILD SUCCESSFUL
IGNORE Total time: 0 seconds
Uninstalling a component
IGNORE   jmx connection info: (host=localhost, port=6949, secure=false, username=admin, target=server )
  name=admin-common-binding-1
Uninstall component succeeded. [
admin-common-binding-1
]

BUILD SUCCESSFUL
IGNORE Total time: 2 seconds
