jmsbinding00007.ksh- undeploy Stop, shutdown and uninstall jms binding test
Stopping a component
IGNORE   jmx connection info: (host=localhost, port=31387, username=admin)
  name=SunJMSBinding
Stop component succeeded. [
SunJMSBinding
]

IGNORE BUILD SUCCESSFUL
IGNORE Total time: 6 seconds
Shutting down a component
IGNORE   jmx connection info: (host=localhost, port=31387, username=admin)
  name=SunJMSBinding
Shutdown component succeeded. [
SunJMSBinding
]

IGNORE BUILD SUCCESSFUL
IGNORE Total time: 5 seconds
Uninstalling a component
IGNORE   jmx connection info: (host=localhost, port=31387, username=admin)
  name=SunJMSBinding
Uninstall component succeeded. [
SunJMSBinding
]

IGNORE BUILD SUCCESSFUL
IGNORE Total time: 6 seconds
Uninstalling a shared library
IGNORE   jmx connection info: (host=localhost, port=31387, username=admin)
  name=sun-wsdl-library
Uninstall shared library succeeded. [
sun-wsdl-library
]

IGNORE BUILD SUCCESSFUL
IGNORE Total time: 7 seconds
Completed uninstalling jms binding
